{
  "artifactGenerations" : [ ],
  "artifactId" : "legend-databricks",
  "groupId" : "org.finos.legend",
  "metamodelDependencies" : [ ],
  "projectDependencies" : [ ],
  "projectId" : "PROD-31061698",
  "projectStructureVersion" : {
    "extensionVersion" : 1,
    "version" : 11
  },
  "projectType" : "PRODUCTION"
}